[2017-04-23 00:25:15] =============2017-04-23 00:25:15============
[2017-04-23 00:25:15] change_bank(2, russianfairy, 0,spin)
[2017-04-23 00:25:15] Игра пытается изменить банк на 0 кредитов
[2017-04-23 00:25:15] =========================
[2017-04-23 00:25:33] =============2017-04-23 00:25:33============
[2017-04-23 00:25:33] change_bank(2, russianfairy, 0,spin)
[2017-04-23 00:25:33] Игра пытается изменить банк на 0 кредитов
[2017-04-23 00:25:33] =========================
[2017-04-23 00:25:33] =============2017-04-23 00:25:33============
[2017-04-23 00:25:33] change_bank(2, russianfairy, -20,spin)
[2017-04-23 00:25:38] =============2017-04-23 00:25:38============
[2017-04-23 00:25:38] change_bank(2, russianfairy, 0,spin)
[2017-04-23 00:25:38] Игра пытается изменить банк на 0 кредитов
[2017-04-23 00:25:38] =========================
[2017-04-23 00:25:40] =============2017-04-23 00:25:40============
[2017-04-23 00:25:40] change_bank(2, russianfairy, 0,spin)
[2017-04-23 00:25:40] Игра пытается изменить банк на 0 кредитов
[2017-04-23 00:25:40] =========================
[2017-04-23 00:25:45] =============2017-04-23 00:25:45============
[2017-04-23 00:25:45] change_bank(2, russianfairy, 0,spin)
[2017-04-23 00:25:45] Игра пытается изменить банк на 0 кредитов
[2017-04-23 00:25:45] =========================
[2017-04-23 00:25:47] =============2017-04-23 00:25:47============
[2017-04-23 00:25:47] change_bank(2, russianfairy, 0,spin)
[2017-04-23 00:25:47] Игра пытается изменить банк на 0 кредитов
[2017-04-23 00:25:47] =========================
[2017-04-23 00:25:47] =============2017-04-23 00:25:47============
[2017-04-23 00:25:47] change_bank(2, russianfairy, -10,spin)
